{
  "prepare_queue": {
    "installed": [],
    "uninstalled": []
  },
  "config_munge": {
    "files": {}
  },
  "installed_plugins": {
    "cordova-plugin-appcenter-analytics": {
      "PACKAGE_NAME": "be.devpro.zorganders"
    },
    "cordova-plugin-device": {
      "PACKAGE_NAME": "be.devpro.zorganders"
    },
    "cordova-plugin-hockeyapp": {
      "PACKAGE_NAME": "be.devpro.zorganders"
    },
    "cordova-plugin-splashscreen": {
      "PACKAGE_NAME": "be.devpro.zorganders"
    },
    "cordova-plugin-statusbar": {
      "PACKAGE_NAME": "be.devpro.zorganders"
    },
    "cordova-plugin-whitelist": {
      "PACKAGE_NAME": "be.devpro.zorganders"
    },
    "cordova-plugin-wkwebview-engine": {
      "PACKAGE_NAME": "be.devpro.zorganders"
    },
    "cordova-plugin-wkwebviewxhrfix": {
      "PACKAGE_NAME": "be.devpro.zorganders"
    }
  },
  "dependent_plugins": {
    "cordova-plugin-appcenter-shared": {
      "PACKAGE_NAME": "be.devpro.zorganders"
    }
  }
}